신록예찬’s Blog - (연구&교수님) HST example 3
…
%%R
d1<-decompose(f,WEuclid,V=V) # 0, 35000, 60000, 80000
d2<-decompose(f,Wgraph,V=V) # 0, 35000, 60000, 80000
d3<-decompose(f,Whst,V=V) # 0, 35000, 60000, 80000

d1$case<-"Euclid"
d2$case<-"Graph"
d3$case<-"HST"
.df2 <-rbind(d1,d2,d3)
.df2 %>% group_by(case,eigenvectorindex) #%>% mutate(textsize= 10*(abs(fhat)>70))
df2=merge(df, .df2 %>% group_by(case,eigenvectorindex) %>% mutate(textsize= 10*(abs(fhat)>70))) %>% as_tibble
df2

# A tibble: 1,587 × 12
   V          f divlink conlink  link movietype Vindex eigenvectorindex     fhat
   <chr>  <dbl>   <dbl>   <dbl> <dbl> <chr>      <int>            <dbl>    <dbl>
 1 Ant-m…  519.    1.75    1.10  1.42 singlehe…     12                1  561.   
 2 Ant-m…  519.    1.75    1.10  1.42 singlehe…     12                6 -142.   
 3 Ant-m…  519.    1.75    1.10  1.42 singlehe…     12               17   -1.52 
 4 Ant-m…  519.    1.75    1.10  1.42 singlehe…     12                5   61.6  
 5 Ant-m…  519.    1.75    1.10  1.42 singlehe…     12               12    0.274
 6 Ant-m…  519.    1.75    1.10  1.42 singlehe…     12               15    0.328
 7 Ant-m…  519.    1.75    1.10  1.42 singlehe…     12                8   28.4  
 8 Ant-m…  519.    1.75    1.10  1.42 singlehe…     12               22   -0.843
 9 Ant-m…  519.    1.75    1.10  1.42 singlehe…     12               18   -6.37 
10 Ant-m…  519.    1.75    1.10  1.42 singlehe…     12                2    4.86 
# … with 1,577 more rows, and 3 more variables: eigenvalue <dbl>, case <chr>,
#   textsize <dbl>

%%R 
df2

# A tibble: 1,587 × 12
   V          f divlink conlink  link movietype Vindex eigenvectorindex     fhat
   <chr>  <dbl>   <dbl>   <dbl> <dbl> <chr>      <int>            <dbl>    <dbl>
 1 Ant-m…  519.    1.75    1.10  1.42 singlehe…     12                1  561.   
 2 Ant-m…  519.    1.75    1.10  1.42 singlehe…     12                6 -142.   
 3 Ant-m…  519.    1.75    1.10  1.42 singlehe…     12               17   -1.52 
 4 Ant-m…  519.    1.75    1.10  1.42 singlehe…     12                5   61.6  
 5 Ant-m…  519.    1.75    1.10  1.42 singlehe…     12               12    0.274
 6 Ant-m…  519.    1.75    1.10  1.42 singlehe…     12               15    0.328
 7 Ant-m…  519.    1.75    1.10  1.42 singlehe…     12                8   28.4  
 8 Ant-m…  519.    1.75    1.10  1.42 singlehe…     12               22   -0.843
 9 Ant-m…  519.    1.75    1.10  1.42 singlehe…     12               18   -6.37 
10 Ant-m…  519.    1.75    1.10  1.42 singlehe…     12                2    4.86 
# … with 1,577 more rows, and 3 more variables: eigenvalue <dbl>, case <chr>,
#   textsize <dbl>
…
